Date,Category,Content,Status,Royalty
21-OCT-18,Animation,"Animation Content Three",1,"Live Technologies"
21-OCT-18,Animation,"Animation Content Two",1,"Live Technologies"
21-OCT-18,Animation,"Animation Content One",1,"Live Technologies"
21-OCT-18,Animation,"Animation Content Four",1,"Live Technologies"
21-OCT-18,Beauty,"Beauty Content Three",1,"Four Beauty Contents"
21-OCT-18,Beauty,"Beauty Content Two",1,"Four Beauty Contents"
21-OCT-18,Beauty,"Beauty Content One",1,"Four Beauty Contents"
21-OCT-18,Beauty,"Beauty Content Four",1,"Four Beauty Contents"
21-OCT-18,Fashion,"Fashion Content Two",1,"Four Fashion Content"
21-OCT-18,Fashion,"Fashion Content One",1,"Four Fashion Content"
21-OCT-18,Fashion,"Fashion Content Three",1,"Four Fashion Content"
21-OCT-18,Fashion,"Fashion Content Four",1,"Four Fashion Content"
21-OCT-18,Health,"Health Content One",1,"Four Health"
21-OCT-18,Health,"Health Content Two",1,"Four Health"
21-OCT-18,Health,"Health Content Three",1,"Four Health"
21-OCT-18,Health,"Health Content Four",1,"Four Health"
